// Jest Snapshot v1, https://goo.gl/fbAQLP

exports[`conversation/response ConversationDto returns the expected formatted data 1`] = `
Object {
  "created_at": 12453453,
  "id": 45,
  "messages": Array [
    Object {
      "created_at": 123,
      "id": 123,
      "message": "123",
      "user": 3,
    },
  ],
  "updated_at": 12453453,
}
`;

exports[`conversation/response ConversationListDto returns the expected formatted data 1`] = `
Array [
  Object {
    "created_at": 12453453,
    "id": 45,
    "updated_at": 12453453,
    "user_1": Object {
      "bio": null,
      "email": "faulkner.development@gmail.com1",
      "first_name": "first",
      "id": 4,
      "last_name": "last",
      "profile_photo": null,
      "username": "test1",
    },
    "user_2": Object {
      "bio": null,
      "email": "faulkner.development@gmail.com",
      "first_name": "first",
      "id": 3,
      "last_name": "last",
      "profile_photo": null,
      "username": "test",
    },
  },
]
`;
